%YAML 1.1
%TAG !u! tag:unity3d.com,2011:
--- !u!1001 &1131610670935559892
PrefabInstance:
  m_ObjectHideFlags: 0
  serializedVersion: 2
  m_Modification:
    serializedVersion: 3
    m_TransformParent: {fileID: 0}
    m_Modifications:
    - target: {fileID: 100000, guid: 98b918f337566884ca93f0222c5e24bd, type: 3}
      propertyPath: m_Name
      value: mesh_tv_01
      objectReference: {fileID: 0}
    - target: {fileID: 400000, guid: 98b918f337566884ca93f0222c5e24bd, type: 3}
      propertyPath: m_LocalScale.x
      value: 7
      objectReference: {fileID: 0}
    - target: {fileID: 400000, guid: 98b918f337566884ca93f0222c5e24bd, type: 3}
      propertyPath: m_LocalScale.y
      value: 7
      objectReference: {fileID: 0}
    - target: {fileID: 400000, guid: 98b918f337566884ca93f0222c5e24bd, type: 3}
      propertyPath: m_LocalScale.z
      value: 7
      objectReference: {fileID: 0}
    - target: {fileID: 400000, guid: 98b918f337566884ca93f0222c5e24bd, type: 3}
      propertyPath: m_LocalPosition.x
      value: -0
      objectReference: {fileID: 0}
    - target: {fileID: 400000, guid: 98b918f337566884ca93f0222c5e24bd, type: 3}
      propertyPath: m_LocalPosition.y
      value: 0
      objectReference: {fileID: 0}
    - target: {fileID: 400000, guid: 98b918f337566884ca93f0222c5e24bd, type: 3}
      propertyPath: m_LocalPosition.z
      value: 0
      objectReference: {fileID: 0}
    - target: {fileID: 400000, guid: 98b918f337566884ca93f0222c5e24bd, type: 3}
      propertyPath: m_LocalRotation.w
      value: 1
      objectReference: {fileID: 0}
    - target: {fileID: 400000, guid: 98b918f337566884ca93f0222c5e24bd, type: 3}
      propertyPath: m_LocalRotation.x
      value: 0
      objectReference: {fileID: 0}
    - target: {fileID: 400000, guid: 98b918f337566884ca93f0222c5e24bd, type: 3}
      propertyPath: m_LocalRotation.y
      value: -0
      objectReference: {fileID: 0}
    - target: {fileID: 400000, guid: 98b918f337566884ca93f0222c5e24bd, type: 3}
      propertyPath: m_LocalRotation.z
      value: -0
      objectReference: {fileID: 0}
    - target: {fileID: 400000, guid: 98b918f337566884ca93f0222c5e24bd, type: 3}
      propertyPath: m_LocalEulerAnglesHint.x
      value: 0
      objectReference: {fileID: 0}
    - target: {fileID: 400000, guid: 98b918f337566884ca93f0222c5e24bd, type: 3}
      propertyPath: m_LocalEulerAnglesHint.y
      value: 0
      objectReference: {fileID: 0}
    - target: {fileID: 400000, guid: 98b918f337566884ca93f0222c5e24bd, type: 3}
      propertyPath: m_LocalEulerAnglesHint.z
      value: 0
      objectReference: {fileID: 0}
    m_RemovedComponents: []
    m_RemovedGameObjects: []
    m_AddedGameObjects: []
    m_AddedComponents:
    - targetCorrespondingSourceObject: {fileID: 100000, guid: 98b918f337566884ca93f0222c5e24bd, type: 3}
      insertIndex: -1
      addedObject: {fileID: 3751004336972203526}
  m_SourcePrefab: {fileID: 100100000, guid: 98b918f337566884ca93f0222c5e24bd, type: 3}
--- !u!1 &1131610670935459956 stripped
GameObject:
  m_CorrespondingSourceObject: {fileID: 100000, guid: 98b918f337566884ca93f0222c5e24bd, type: 3}
  m_PrefabInstance: {fileID: 1131610670935559892}
  m_PrefabAsset: {fileID: 0}
--- !u!65 &3751004336972203526
BoxCollider:
  m_ObjectHideFlags: 0
  m_CorrespondingSourceObject: {fileID: 0}
  m_PrefabInstance: {fileID: 0}
  m_PrefabAsset: {fileID: 0}
  m_GameObject: {fileID: 1131610670935459956}
  m_Material: {fileID: 0}
  m_IncludeLayers:
    serializedVersion: 2
    m_Bits: 0
  m_ExcludeLayers:
    serializedVersion: 2
    m_Bits: 0
  m_LayerOverridePriority: 0
  m_IsTrigger: 0
  m_ProvidesContacts: 0
  m_Enabled: 1
  serializedVersion: 3
  m_Size: {x: 1.7102412, y: 1.0271256, z: 0.28677657}
  m_Center: {x: 0.48278496, y: 1.9351968, z: 0.4040897}
